{
    "environment":"Development",
    "port": 3000,
    "paths": {
        "node": null,
        "npm": null,
        "bower": null
    },
    "database":{
        "connectionString":"mongodb://localhost:27017/gameData",
        "exampleConnectionString":"mongodb://test:test@someserver:27017/gameData?authMechanism=MONGODB-CR",
        "users":[
            {
                "user":"root",
                "password":"idunno",
                "authSource":"admin",
                "authMechanism":"MONGODB-CR"
            },
            {
                "user":"another_user",
                "password":"this is so I don't forget",
                "authSource":"some_database",
                "authMechanism":"MONGODB-CR"
            }
        ]
    },
    "authorization":{
        "facebook":{
            "APIVersion":"v2.5",
            "AppID":"your-appid",
            "AppSecret":"your-app-secret",
            "callbackURL":"http://localhost:1337/auth/facebook/callback"
        },
        "twitter":{
            "consumerKey":"your-consumer-key",
            "consumerSecret":"your-client-secret",
            "callbackURL":"http://localhost:1337/auth/twitter/callback"
        },
        "google":{
            "clientID":"your-secret-clientID",
            "clientSecret":"your-client-secret",
            "callbackURL":"http://localhost:1337/auth/google/callback"
        }
    }
}
