{ 
    
    "battlecruiser-sm-00": [
        {
            "shape": [ 124,57, 118,41, 130,53, 130,59 ]
        },
        {
            "shape": [ 122,77, 74,52, 118,41, 124,57, 127,71, 128,79 ]
        },
        {
            "shape": [ 50,167, 53,170, 50,170 ]
        },
        {
            "shape": [ 35,170, 22,141, 12,107, 27,138, 38,165, 39,169 ]
        },
        {
            "shape": [ 0,52, 11,42, 5,58, 0,59 ]
        },
        {
            "shape": [ 4,70, 7,77, 2,79 ]
        },
        {
            "shape": [ 0,66, 5,58, 4,70, 1,71 ]
        },
        {
            "shape": [ 1,38, 18,26, 11,42, 1,44 ]
        },
        {
            "shape": [ 91,165, 102,137, 119,105, 105,151, 94,170, 91,170 ]
        },
        {
            "shape": [ 118,41, 112,25, 129,38, 129,44 ]
        },
        {
            "shape": [ 112,25, 92,1, 126,22, 125,29 ]
        },
        {
            "shape": [ 92,1, 112,25, 118,41, 74,52, 72,12, 80,0 ]
        },
        {
            "shape": [ 59,120, 55,105, 64,83, 74,107, 71,120, 63,124 ]
        },
        {
            "shape": [ 61,46, 64,83, 58,53, 58,47 ]
        },
        {
            "shape": [ 55,6, 58,24, 55,46, 35,99, 28,95, 31,7, 36,2, 50,0 ]
        },
        {
            "shape": [ 3,23, 13,14, 31,7, 18,26, 3,28 ]
        },
        {
            "shape": [ 127,71, 124,57, 130,70 ]
        },
        {
            "shape": [ 122,103, 119,105, 102,95, 74,52, 122,77 ]
        },
        {
            "shape": [ 102,95, 119,105, 102,137 ]
        },
        {
            "shape": [ 5,58, 11,42, 18,26, 31,7, 28,95, 7,77, 4,70 ]
        },
        {
            "shape": [ 7,77, 28,95, 12,107, 7,100 ]
        },
        {
            "shape": [ 12,107, 28,95, 27,138 ]
        },
        {
            "shape": [ 96,99, 74,52, 102,95 ]
        },
        {
            "shape": [ 72,53, 64,83, 69,46 ]
        },
        {
            "shape": [ 83,118, 96,99, 83,167, 77,170 ]
        },
        {
            "shape": [ 81,110, 74,52, 96,99, 83,118 ]
        },
        {
            "shape": [ 74,107, 64,83, 72,53, 74,52, 81,110 ]
        },
        {
            "shape": [ 58,53, 64,83, 55,105, 49,110, 35,99, 55,46 ]
        },
        {
            "shape": [ 50,167, 47,128, 53,170 ]
        },
        {
            "shape": [ 47,167, 35,99, 47,128, 50,167 ]
        },
        {
            "shape": [ 35,99, 49,110, 47,128 ]
        }
    ]
    , 
    "battleship-sm-00": [
        {
            "shape": [ 2,148, 11,134, 10,153, 0,161 ]
        },
        {
            "shape": [ 1,135, 8,125, 11,134, 1,142 ]
        },
        {
            "shape": [ 68,6, 56,6, 59,1, 64,0 ]
        },
        {
            "shape": [ 72,120, 77,111, 74,128, 70,132 ]
        },
        {
            "shape": [ 2,169, 12,155, 20,165, 5,182, 0,183 ]
        },
        {
            "shape": [ 82,22, 31,13, 56,6, 68,6, 84,9, 99,18, 100,24 ]
        },
        {
            "shape": [ 72,100, 94,56, 77,111, 72,120 ]
        },
        {
            "shape": [ 114,137, 116,125, 124,141, 120,142 ]
        },
        {
            "shape": [ 87,44, 31,13, 82,22 ]
        },
        {
            "shape": [ 31,13, 42,23, 24,24, 24,19 ]
        },
        {
            "shape": [ 120,183, 110,174, 108,168, 112,155, 122,169, 124,183 ]
        },
        {
            "shape": [ 48,111, 53,100, 54,132 ]
        },
        {
            "shape": [ 121,161, 114,153, 114,137, 122,148, 124,160 ]
        },
        {
            "shape": [ 20,165, 36,157, 31,178, 27,179 ]
        },
        {
            "shape": [ 12,155, 11,134, 40,144, 36,157, 20,165 ]
        },
        {
            "shape": [ 43,141, 48,111, 50,147 ]
        },
        {
            "shape": [ 77,111, 81,141, 74,147 ]
        },
        {
            "shape": [ 94,179, 89,157, 103,166, 98,178 ]
        },
        {
            "shape": [ 30,56, 48,111, 43,141, 40,144, 11,134, 8,125, 9,89, 18,65 ]
        },
        {
            "shape": [ 115,93, 116,125, 114,137, 84,144, 81,141, 77,111, 94,56, 106,65 ]
        },
        {
            "shape": [ 36,157, 40,144, 47,169, 42,167 ]
        },
        {
            "shape": [ 103,166, 89,157, 84,144, 114,137, 112,155, 108,168 ]
        },
        {
            "shape": [ 84,144, 89,157, 82,167, 77,169 ]
        },
        {
            "shape": [ 42,23, 94,56, 36,46, 38,27 ]
        },
        {
            "shape": [ 112,155, 114,137, 114,153 ]
        },
        {
            "shape": [ 11,134, 12,155, 10,153 ]
        },
        {
            "shape": [ 94,56, 42,23, 31,13, 87,44 ]
        },
        {
            "shape": [ 66,85, 94,56, 72,100 ]
        },
        {
            "shape": [ 59,84, 30,56, 36,46, 94,56, 66,85 ]
        },
        {
            "shape": [ 30,56, 59,84, 53,100, 48,111 ]
        }
    ]
    , 
    "cruiser-sm-00": [
        {
            "shape": [ 5,22, 3,33, 1,18, 4,18 ]
        },
        {
            "shape": [ 15,79, 24,73, 24,95 ]
        },
        {
            "shape": [ 49,6, 48,22, 45,11, 46,6 ]
        },
        {
            "shape": [ 37,134, 43,109, 54,87, 40,140, 37,140 ]
        },
        {
            "shape": [ 9,12, 5,22, 5,6, 8,6 ]
        },
        {
            "shape": [ 36,0, 45,11, 48,22, 51,36, 54,87, 28,58, 9,12, 17,0 ]
        },
        {
            "shape": [ 15,79, 0,87, 0,49, 3,33, 26,57, 24,73 ]
        },
        {
            "shape": [ 51,36, 48,22, 53,18 ]
        },
        {
            "shape": [ 31,73, 39,79, 34,93, 30,95 ]
        },
        {
            "shape": [ 28,58, 54,87, 39,79, 31,73 ]
        },
        {
            "shape": [ 44,88, 54,87, 43,109 ]
        },
        {
            "shape": [ 39,79, 54,87, 44,88 ]
        },
        {
            "shape": [ 28,58, 26,57, 3,33, 5,22, 9,12 ]
        },
        {
            "shape": [ 14,140, 0,87, 11,115, 17,140 ]
        },
        {
            "shape": [ 0,87, 11,88, 11,115 ]
        },
        {
            "shape": [ 0,87, 15,79, 11,88 ]
        }
    ]
    , 
    "destroyer-sm-00": [
        {
            "shape": [ 27,22, 0,75, 4,34, 14,10, 20,4, 33,0 ]
        },
        {
            "shape": [ 69,3, 76,11, 86,34, 89,76, 62,21, 57,0 ]
        },
        {
            "shape": [ 46,35, 0,75, 27,22, 35,16, 42,15 ]
        },
        {
            "shape": [ 36,146, 53,147, 49,164, 43,166 ]
        },
        {
            "shape": [ 36,146, 27,137, 15,105, 89,76, 64,135, 53,147 ]
        },
        {
            "shape": [ 53,15, 62,21, 89,76, 46,35, 47,16 ]
        },
        {
            "shape": [ 89,76, 15,105, 0,102, 0,75, 46,35 ]
        },
        {
            "shape": [ 3,142, 0,102, 10,107, 14,177, 10,177 ]
        },
        {
            "shape": [ 0,102, 15,105, 10,107 ]
        },
        {
            "shape": [ 80,177, 76,177, 80,108, 89,76, 90,122 ]
        },
        {
            "shape": [ 89,76, 80,108, 77,105 ]
        }
    ]
    , 
    "frigate-sm-00": [
        {
            "shape": [ 36,9, 40,17, 29,24, 24,24, 24,0 ]
        },
        {
            "shape": [ 30,50, 31,37, 32,29, 40,17, 41,35, 34,70 ]
        },
        {
            "shape": [ 23,25, 31,37, 30,50, 13,36, 17,26 ]
        },
        {
            "shape": [ 12,24, 0,18, 13,1, 17,0, 18,24 ]
        },
        {
            "shape": [ 29,85, 27,62, 34,96, 31,96 ]
        },
        {
            "shape": [ 7,96, 9,75, 14,82, 10,96 ]
        },
        {
            "shape": [ 9,75, 15,61, 27,62, 25,82, 14,82 ]
        },
        {
            "shape": [ 9,35, 0,18, 12,24 ]
        },
        {
            "shape": [ 9,35, 10,50, 10,69, 7,70, 0,18 ]
        },
        {
            "shape": [ 40,17, 32,29, 29,24 ]
        },
        {
            "shape": [ 25,82, 27,62, 29,85 ]
        },
        {
            "shape": [ 15,61, 10,50, 9,35, 13,36, 30,50, 27,62 ]
        }
    ]
    , 
    "frigate-sm-01": [
        {
            "shape": [ 17,24, 12,24, 0,17, 4,10, 17,0 ]
        },
        {
            "shape": [ 23,25, 29,37, 14,34, 16,27 ]
        },
        {
            "shape": [ 41,35, 32,29, 24,0, 27,0, 40,17 ]
        },
        {
            "shape": [ 32,51, 41,35, 34,70, 31,62 ]
        },
        {
            "shape": [ 27,82, 27,62, 34,96, 31,96 ]
        },
        {
            "shape": [ 14,82, 14,55, 27,62, 27,82 ]
        },
        {
            "shape": [ 7,96, 14,55, 14,82, 10,96 ]
        },
        {
            "shape": [ 14,55, 10,50, 29,50, 27,62 ]
        },
        {
            "shape": [ 29,50, 41,35, 32,51 ]
        },
        {
            "shape": [ 10,50, 29,37, 32,36, 41,35, 29,50 ]
        },
        {
            "shape": [ 7,70, 0,17, 9,36, 10,50, 10,67 ]
        },
        {
            "shape": [ 29,37, 10,50, 9,36, 14,34 ]
        },
        {
            "shape": [ 9,36, 0,17, 12,24 ]
        },
        {
            "shape": [ 24,0, 27,23, 24,24 ]
        },
        {
            "shape": [ 24,0, 32,29, 27,23 ]
        },
        {
            "shape": [ 41,35, 32,36, 32,29 ]
        }
    ]
    , 
    "frigate-sm-10": [
        {
            "shape": [ 2,96, 2,82, 7,69, 7,92, 6,96 ]
        },
        {
            "shape": [ 35,93, 37,76, 39,96, 35,96 ]
        },
        {
            "shape": [ 7,69, 14,82, 10,96, 7,96 ]
        },
        {
            "shape": [ 17,24, 12,24, 0,17, 6,7, 17,0 ]
        },
        {
            "shape": [ 31,36, 34,72, 28,83, 25,82, 12,36, 16,27, 23,25 ]
        },
        {
            "shape": [ 28,83, 34,72, 37,76, 35,93, 31,96 ]
        },
        {
            "shape": [ 7,69, 0,17, 9,35, 25,82, 14,82 ]
        },
        {
            "shape": [ 41,35, 31,36, 28,0, 40,17 ]
        },
        {
            "shape": [ 24,0, 28,0, 30,25, 24,24 ]
        },
        {
            "shape": [ 34,72, 31,36, 41,35 ]
        },
        {
            "shape": [ 9,28, 0,17, 12,24 ]
        },
        {
            "shape": [ 9,35, 0,17, 9,28 ]
        },
        {
            "shape": [ 25,82, 9,35, 12,36 ]
        }
    ]
    , 
    "frigate-sm-11": [
        {
            "shape": [ 2,96, 2,82, 7,69, 7,92, 6,96 ]
        },
        {
            "shape": [ 35,93, 37,76, 39,96, 35,96 ]
        },
        {
            "shape": [ 7,69, 14,82, 10,96, 7,96 ]
        },
        {
            "shape": [ 17,24, 12,24, 0,17, 6,7, 17,0 ]
        },
        {
            "shape": [ 31,36, 34,72, 28,83, 25,82, 12,36, 16,27, 23,25 ]
        },
        {
            "shape": [ 28,83, 34,72, 37,76, 35,93, 31,96 ]
        },
        {
            "shape": [ 7,69, 0,17, 9,35, 25,82, 14,82 ]
        },
        {
            "shape": [ 41,35, 31,36, 28,0, 40,17 ]
        },
        {
            "shape": [ 24,0, 28,0, 30,25, 24,24 ]
        },
        {
            "shape": [ 34,72, 31,36, 41,35 ]
        },
        {
            "shape": [ 9,28, 0,17, 12,24 ]
        },
        {
            "shape": [ 9,35, 0,17, 9,28 ]
        },
        {
            "shape": [ 25,82, 9,35, 12,36 ]
        }
    ]
}
